Plot_SeedQ
…
# Creating an Edge List:
per_route_Seed1 <- Seed1_AllC %>%  
  group_by(Source, Target) %>%
  summarise(weight = n()) %>% 
  ungroup()
per_route_Seed1

## # A tibble: 2,835 x 3
##    Source Target weight
##     <int>  <int>  <int>
##  1 462691 459381      1
##  2 462691 462691      4
##  3 462691 466429      1
##  4 462691 466907      1
##  5 462691 469603      1
##  6 462691 470784      1
##  7 462691 473173      1
##  8 462691 481408      1
##  9 462691 493846      2
## 10 462691 499467      5
## #  with 2,825 more rows

edges_Seed1 <- per_route_Seed1 %>% 
  left_join(nodes_S1, by = c("Source" = "label")) %>% 
  rename(from = id)

edges_Seed1 <- edges_Seed1 %>% 
  left_join(nodes_S1, by = c("Target" = "label")) %>% 
  rename(to = id)

edges_Seed1 <- select(edges_Seed1, from, to, weight)
edges_Seed1

## # A tibble: 2,835 x 3
##     from    to weight
##    <int> <int>  <int>
##  1    41    63      1
##  2    41    41      4
##  3    41    50      1
##  4    41    65      1
##  5    41    51      1
##  6    41    19      1
##  7    41    72      1
##  8    41    39      1
##  9    41    38      2
## 10    41    74      5
## #  with 2,825 more rows
…
# Creating an Edge List:
per_route_S3 <- Seed3_AllC %>%  
  group_by(Source, Target) %>%
  summarise(weight = n()) %>% 
  ungroup()
per_route_S3

## # A tibble: 3,511 x 3
##    Source Target weight
##     <int>  <int>  <int>
##  1 458454 459381      1
##  2 458454 473173      1
##  3 458454 503701      1
##  4 458454 523927      1
##  5 458454 527449      1
##  6 458454 537281      1
##  7 458454 561157     10
##  8 458454 571970      1
##  9 458454 575030      1
## 10 458454 577992      1
## #  with 3,501 more rows

edges_S3 <- per_route_S3 %>% 
  left_join(nodes_S3, by = c("Source" = "label")) %>% 
  rename(from = id)

edges_S3 <- edges_S3 %>% 
  left_join(nodes_S3, by = c("Target" = "label")) %>% 
  rename(to = id)

edges_S3 <- select(edges_S3, from, to, weight)
edges_S3

## # A tibble: 3,511 x 3
##     from    to weight
##    <int> <int>  <int>
##  1    75   132      1
##  2    75   145      1
##  3    75   142      1
##  4    75   137      1
##  5    75   131      1
##  6    75   136      1
##  7    75   148     10
##  8    75   451      1
##  9    75   291      1
## 10    75   290      1
## #  with 3,501 more rows
…
# Creating an Edge List:
per_route_G1<- G1_ExtendC %>%  
  group_by(Source, Target) %>%
  summarise(weight = n()) %>% 
  ungroup()
per_route_G1

## # A tibble: 2,030 x 3
##    Source Target weight
##     <int>  <int>  <int>
##  1 463777 459381      1
##  2 463777 466907      1
##  3 463777 473173      1
##  4 463777 499467      5
##  5 463777 503701      1
##  6 463777 520660      1
##  7 463777 523927      1
##  8 463777 527449      1
##  9 463777 536346      1
## 10 463777 537281      1
## #  with 2,020 more rows

edges_G1 <- per_route_G1 %>% 
  left_join(nodes_G1, by = c("Source" = "label")) %>% 
  rename(from = id)

edges_G1 <- edges_G1 %>% 
  left_join(nodes_G1, by = c("Target" = "label")) %>% 
  rename(to = id)

edges_G1 <- select(edges_G1, from, to, weight)
edges_G1

## # A tibble: 2,030 x 3
##     from    to weight
##    <int> <int>  <int>
##  1    44    65      1
##  2    44    67      1
##  3    44    74      1
##  4    44    77      5
##  5    44    71      1
##  6    44    80      1
##  7    44    69      1
##  8    44    64      1
##  9    44    62      1
## 10    44    82      1
## #  with 2,020 more rows
…
# Creating an Edge List:
per_route_G2<- G2_ExtendC %>%  
  group_by(Source, Target) %>%
  summarise(weight = n()) %>% 
  ungroup()
per_route_G2

## # A tibble: 1,429 x 3
##    Source Target weight
##     <int>  <int>  <int>
##  1 464459 459381      1
##  2 464459 466907      1
##  3 464459 473173      1
##  4 464459 499467     20
##  5 464459 509607     25
##  6 464459 523927      1
##  7 464459 527449      1
##  8 464459 537281      1
##  9 464459 561157     20
## 10 464459 567195      1
## #  with 1,419 more rows

edges_G2 <- per_route_G2 %>% 
  left_join(nodes_G2, by = c("Source" = "label")) %>% 
  rename(from = id)

edges_G2 <- edges_G2 %>% 
  left_join(nodes_G2, by = c("Target" = "label")) %>% 
  rename(to = id)

edges_G2 <- select(edges_G2, from, to, weight)
edges_G2

## # A tibble: 1,429 x 3
##     from    to weight
##    <int> <int>  <int>
##  1    26    60      1
##  2    26    62      1
##  3    26    73      1
##  4    26    77     20
##  5    26    85     25
##  6    26    66      1
##  7    26    59      1
##  8    26    65      1
##  9    26    75     20
## 10    26    58      1
## #  with 1,419 more rows
…
# Creating an Edge List:
per_route_G3<- G3_ExtendC %>%  
  group_by(Source, Target) %>%
  summarise(weight = n()) %>% 
  ungroup()
per_route_G3

## # A tibble: 1,557 x 3
##    Source Target weight
##     <int>  <int>  <int>
##  1 464459 459381      1
##  2 464459 466907      1
##  3 464459 473173      1
##  4 464459 499467     20
##  5 464459 509607     25
##  6 464459 523927      1
##  7 464459 527449      1
##  8 464459 537281      1
##  9 464459 561157     20
## 10 464459 567195      1
## #  with 1,547 more rows

edges_G3 <- per_route_G3 %>% 
  left_join(nodes_G3, by = c("Source" = "label")) %>% 
  rename(from = id)

edges_G3 <- edges_G3 %>% 
  left_join(nodes_G3, by = c("Target" = "label")) %>% 
  rename(to = id)

edges_G3 <- select(edges_G3, from, to, weight)
edges_G3

## # A tibble: 1,557 x 3
##     from    to weight
##    <int> <int>  <int>
##  1    24    49      1
##  2    24    51      1
##  3    24    60      1
##  4    24    71     20
##  5    24    65     25
##  6    24    54      1
##  7    24    48      1
##  8    24    53      1
##  9    24    72     20
## 10    24    62      1
## #  with 1,547 more rows
…
# Creating an Edge List:
per_route_G4<- G4_ExtendC %>%  
  group_by(Source, Target) %>%
  summarise(weight = n()) %>% 
  ungroup()
per_route_G4

## # A tibble: 2,568 x 3
##    Source Target weight
##     <int>  <int>  <int>
##  1 459726 459381      1
##  2 459726 466907      1
##  3 459726 473173      1
##  4 459726 503701      1
##  5 459726 523927      1
##  6 459726 527449      1
##  7 459726 536346      1
##  8 459726 537281      1
##  9 459726 561157      5
## 10 459726 575030      1
## #  with 2,558 more rows

edges_G4 <- per_route_G4 %>% 
  left_join(nodes_G4, by = c("Source" = "label")) %>% 
  rename(from = id)

edges_G4 <- edges_G4 %>% 
  left_join(nodes_G4, by = c("Target" = "label")) %>% 
  rename(to = id)

edges_G4 <- select(edges_G4, from, to, weight)
edges_G4

## # A tibble: 2,568 x 3
##     from    to weight
##    <int> <int>  <int>
##  1    33   205      1
##  2    33   207      1
##  3    33   215      1
##  4    33   212      1
##  5    33   222      1
##  6    33   204      1
##  7    33   218      1
##  8    33   221      1
##  9    33   510      5
## 10    33   225      1
## #  with 2,558 more rows
…
# Creating an Edge List:
per_route_G5<- G5_ExtendC %>%  
  group_by(Source, Target) %>%
  summarise(weight = n()) %>% 
  ungroup()
per_route_G5

## # A tibble: 817 x 3
##    Source Target weight
##     <int>  <int>  <int>
##  1 477657 459381      2
##  2 477657 466907      2
##  3 477657 473173      2
##  4 477657 499467     10
##  5 477657 503701      2
##  6 477657 527449      2
##  7 477657 561157     10
##  8 477657 567195      2
##  9 477657 571970      2
## 10 477657 575030      2
## #  with 807 more rows

edges_G5 <- per_route_G5 %>% 
  left_join(nodes_G5, by = c("Source" = "label")) %>% 
  rename(from = id)

edges_G5 <- edges_G5 %>% 
  left_join(nodes_G5, by = c("Target" = "label")) %>% 
  rename(to = id)

edges_G5 <- select(edges_G5, from, to, weight)
edges_G5

## # A tibble: 817 x 3
##     from    to weight
##    <int> <int>  <int>
##  1     9   160      2
##  2     9   162      2
##  3     9   173      2
##  4     9   294     10
##  5     9   169      2
##  6     9   159      2
##  7     9   183     10
##  8     9   158      2
##  9     9   170      2
## 10     9   182      2
## #  with 807 more rows
…
